Biostat 203B Homework 2
…
For each subject_id, let’s only keep the first ICU stay in the tibble icustays_tble. (Hint: slice_min and slice_max may take long. Think alternative ways to achieve the same function.)

Solution:

icustays_tble <- icustays_tble %>%
  group_by(subject_id) %>%
  arrange(intime, .by_group = TRUE) %>%
  slice_head(n = 1) %>%
  ungroup() %>%
  print(width = Inf)

# A tibble: 53,150 × 8
   subject_id  hadm_id  stay_id first_careunit                                  
        <dbl>    <dbl>    <dbl> <chr>                                           
 1   10000032 29079034 39553978 Medical Intensive Care Unit (MICU)              
 2   10000980 26913865 39765666 Medical Intensive Care Unit (MICU)              
 3   10001217 24597018 37067082 Surgical Intensive Care Unit (SICU)             
 4   10001725 25563031 31205490 Medical/Surgical Intensive Care Unit (MICU/SICU)
 5   10001884 26184834 37510196 Medical Intensive Care Unit (MICU)              
 6   10002013 23581541 39060235 Cardiac Vascular Intensive Care Unit (CVICU)    
 7   10002155 23822395 33685454 Coronary Care Unit (CCU)                        
 8   10002223 22494570 39638202 Trauma SICU (TSICU)                             
 9   10002348 22725460 32610785 Neuro Intermediate                              
10   10002428 28662225 33987268 Medical Intensive Care Unit (MICU)              
   last_careunit                                    intime             
   <chr>                                            <dttm>             
 1 Medical Intensive Care Unit (MICU)               2180-07-23 14:00:00
 2 Medical Intensive Care Unit (MICU)               2189-06-27 08:42:00
 3 Surgical Intensive Care Unit (SICU)              2157-11-20 19:18:02
 4 Medical/Surgical Intensive Care Unit (MICU/SICU) 2110-04-11 15:52:22
 5 Medical Intensive Care Unit (MICU)               2131-01-11 04:20:05
 6 Cardiac Vascular Intensive Care Unit (CVICU)     2160-05-18 10:00:53
 7 Coronary Care Unit (CCU)                         2129-08-04 12:45:00
 8 Trauma SICU (TSICU)                              2158-01-15 08:01:49
 9 Neuro Intermediate                               2112-11-30 23:24:00
10 Medical Intensive Care Unit (MICU)               2156-04-12 16:24:18
   outtime               los
   <dttm>              <dbl>
 1 2180-07-23 23:50:47 0.410
 2 2189-06-27 20:38:27 0.498
 3 2157-11-21 22:08:00 1.12 
 4 2110-04-12 23:59:56 1.34 
 5 2131-01-20 08:27:30 9.17 
 6 2160-05-19 17:33:33 1.31 
 7 2129-08-10 17:02:38 6.18 
 8 2158-01-16 15:19:24 1.30 
 9 2112-12-10 18:25:13 9.79 
10 2156-04-17 15:57:08 4.98 
# … with 53,140 more rows
…
Let’s only keep the admissions that have a match in icustays_tble according to subject_id and hadmi_id.

Solution : Using semi-join, we can keep the rows in the admissions_tble with the same subject_id and hadmi_id as in icustays_tble

admissions_tble <- admissions_tble %>%
  semi_join(select(icustays_tble, subject_id, hadm_id), 
            by = c("subject_id", "hadm_id"))  %>%
  print(width = Inf)

# A tibble: 53,150 × 15
   subject_id  hadm_id admittime           dischtime          
        <dbl>    <dbl> <dttm>              <dttm>             
 1   10222255 28200985 2120-11-20 20:25:00 2120-11-22 13:00:00
 2   14485852 28712010 2113-10-31 00:23:00 2113-11-04 16:50:00
 3   18709254 23758948 2195-10-12 01:31:00 2195-10-12 13:51:00
 4   16837807 23526268 2151-03-19 06:09:00 2151-03-19 07:20:00
 5   17642680 27734285 2116-05-29 12:48:00 2116-05-30 12:31:00
 6   18230965 21251728 2142-03-12 20:00:00 2142-03-17 15:26:00
 7   17374121 27667114 2115-07-22 07:15:00 2115-07-24 17:50:00
 8   13346506 28533404 2181-11-19 14:32:00 2181-11-22 18:47:00
 9   18030332 24679656 2152-07-22 21:28:00 2152-07-27 16:49:00
10   14328744 29576470 2126-08-20 09:26:00 2126-08-21 11:36:00
   deathtime           admission_type     admission_location    
   <dttm>              <chr>              <chr>                 
 1 NA                  EU OBSERVATION     TRANSFER FROM HOSPITAL
 2 NA                  EW EMER.           EMERGENCY ROOM        
 3 NA                  EU OBSERVATION     EMERGENCY ROOM        
 4 2151-03-19 07:20:00 EU OBSERVATION     EMERGENCY ROOM        
 5 NA                  EU OBSERVATION     WALK-IN/SELF REFERRAL 
 6 NA                  URGENT             PHYSICIAN REFERRAL    
 7 NA                  DIRECT OBSERVATION PHYSICIAN REFERRAL    
 8 NA                  EU OBSERVATION     EMERGENCY ROOM        
 9 NA                  URGENT             TRANSFER FROM HOSPITAL
10 NA                  EU OBSERVATION     EMERGENCY ROOM        
   discharge_location insurance language marital_status ethnicity
   <chr>              <chr>     <chr>    <chr>          <chr>    
 1 <NA>               Other     ENGLISH  MARRIED        WHITE    
 2 <NA>               Other     ENGLISH  SINGLE         WHITE    
 3 <NA>               Medicaid  ENGLISH  WIDOWED        ASIAN    
 4 <NA>               Medicare  ENGLISH  SINGLE         WHITE    
 5 <NA>               Other     ENGLISH  SINGLE         WHITE    
 6 HOME               Other     ENGLISH  MARRIED        WHITE    
 7 <NA>               Other     ENGLISH  MARRIED        WHITE    
 8 <NA>               Other     ENGLISH  MARRIED        WHITE    
 9 HOME               Other     ENGLISH  MARRIED        UNKNOWN  
10 <NA>               Other     ENGLISH  MARRIED        WHITE    
   edregtime           edouttime           hospital_expire_flag
   <dttm>              <dttm>                             <dbl>
 1 2120-11-20 18:07:00 2120-11-21 20:25:00                    0
 2 2113-10-30 19:48:00 2113-10-31 05:10:00                    0
 3 2195-10-11 18:40:00 2195-10-12 02:47:00                    0
 4 2151-03-19 02:55:00 2151-03-19 06:59:00                    1
 5 2116-05-29 10:05:00 2116-05-30 01:17:00                    0
 6 NA                  NA                                     0
 7 NA                  NA                                     0
 8 2181-11-19 10:51:00 2181-11-19 15:12:00                    0
 9 NA                  NA                                     0
10 2126-08-19 23:01:00 2126-08-20 10:14:00                    0
# … with 53,140 more rows
…
Import patients.csv.gz (https://mimic.mit.edu/docs/iv/modules/hosp/patients/) as a tibble patients_tble and only keep the patients who have a match in icustays_tble (according to subject_id).

Solution: It can be imported as a tibble as in previous questions and we can use a semi_join to keep the matching subject_id only.

patients_tble <- read_csv(str_c(mimic_path, "/core/patients.csv.gz"))
patients_tble <- patients_tble %>%
  arrange(subject_id) %>%
  semi_join(icustays_tble, by = c("subject_id")) %>%
  print(width = Inf)

# A tibble: 53,150 × 6
   subject_id gender anchor_age anchor_year anchor_year_group dod       
        <dbl> <chr>       <dbl>       <dbl> <chr>             <date>    
 1   10000032 F              52        2180 2014 - 2016       NA        
 2   10000980 F              73        2186 2008 - 2010       NA        
 3   10001217 F              55        2157 2011 - 2013       NA        
 4   10001725 F              46        2110 2011 - 2013       NA        
 5   10001884 F              68        2122 2008 - 2010       2131-01-20
 6   10002013 F              53        2156 2008 - 2010       NA        
 7   10002155 F              80        2128 2008 - 2010       2131-03-10
 8   10002223 M              21        2158 2008 - 2010       NA        
 9   10002348 F              77        2112 2017 - 2019       NA        
10   10002428 F              80        2155 2011 - 2013       NA        
# … with 53,140 more rows
…
lab_filter = 
  c(50912, 50971, 50983, 50902, 50882, 51221, 51301, 50931)
lab_items = 
  read_csv((str_c(mimic_path, "/hosp/d_labitems.csv.gz")),col_select = c(1,2),    show_col_types = FALSE ) %>%
  filter(itemid %in% lab_filter)
labevents_tble = 
  read_csv((str_c(mimic_path, "/hosp/labevents_filtered_itemid.csv.gz")), 
    show_col_types = FALSE) %>%
  left_join(lab_items, by = "itemid") %>%
  semi_join(select(icustays_tble, subject_id), by = "subject_id") 
labevents_tble %>%
  print(width = Inf)

# A tibble: 16,698,462 × 5
   subject_id itemid charttime           valuenum label            
        <dbl>  <dbl> <dttm>                 <dbl> <chr>            
 1   10003700  50882 2162-11-15 17:00:00     27   Bicarbonate      
 2   10003700  50902 2162-11-15 17:00:00    103   Chloride         
 3   10003700  50912 2162-11-15 17:00:00      1   Creatinine       
 4   10003700  50931 2162-11-15 17:00:00     93   Glucose          
 5   10003700  50971 2162-11-15 17:00:00      4.1 Potassium        
 6   10003700  50983 2162-11-15 17:00:00    141   Sodium           
 7   10003700  51221 2162-11-15 17:00:00     40   Hematocrit       
 8   10003700  51301 2162-11-15 17:00:00      6.7 White Blood Cells
 9   10003700  51221 2165-04-24 03:40:00     41   Hematocrit       
10   10003700  51301 2165-04-24 03:40:00      5.8 White Blood Cells
# … with 16,698,452 more rows
…
vital_filter = c(220045, 220181, 220179, 223761, 220210)
vit = 
  read_csv((str_c(mimic_path, "/icu/d_items.csv.gz")), 
    col_select = c(1), 
    show_col_types = FALSE) %>%
  filter(itemid %in% vital_filter)
chartevents_tble = 
  read_csv((str_c(mimic_path, "/icu/chartevents_filtered_itemid.csv.gz")), 
    show_col_types = FALSE) %>%
  left_join(select(vit, itemid), by = "itemid") %>%
  semi_join(select(icustays_tble, subject_id), by = "subject_id")
chartevents_tble %>%
 print (width = Inf)

# A tibble: 23,679,058 × 6
   subject_id  hadm_id  stay_id charttime           itemid valuenum
        <dbl>    <dbl>    <dbl> <dttm>               <dbl>    <dbl>
 1   10003700 28623837 30600691 2165-04-24 05:28:00 220179    152  
 2   10003700 28623837 30600691 2165-04-24 05:28:00 220181    110  
 3   10003700 28623837 30600691 2165-04-24 05:30:00 220045     65  
 4   10003700 28623837 30600691 2165-04-24 05:30:00 220210     14  
 5   10003700 28623837 30600691 2165-04-24 05:38:00 223761     97.6
 6   10003700 28623837 30600691 2165-04-24 06:00:00 220045     56  
 7   10003700 28623837 30600691 2165-04-24 06:00:00 220179    126  
 8   10003700 28623837 30600691 2165-04-24 06:00:00 220181     88  
 9   10003700 28623837 30600691 2165-04-24 06:00:00 220210     14  
10   10003700 28623837 30600691 2165-04-24 06:09:00 220045     55  
# … with 23,679,048 more rows
…
         charttime > intime
         ) %>%
  group_by(subject_id, itemid) %>%
  arrange(charttime, .by_group = TRUE) %>%
  slice_head(n = 1) %>%
  ungroup() %>%
  select(-intime, -outtime, -hadm_id, -stay_id)
chartevents_tble = 
  pivot_wider(
    chartevents_tble_summ, names_prefix = "", names_from = c("itemid"), 
    values_from = c("charttime","valuenum"))
chartevents_tble %>%
  print(width = Inf)

# A tibble: 53,136 × 11
   subject_id charttime_220045    charttime_220179    charttime_220181   
        <dbl> <dttm>              <dttm>              <dttm>             
 1   10000032 2180-07-23 14:12:00 2180-07-23 14:11:00 2180-07-23 14:11:00
 2   10000980 2189-06-27 08:56:00 2189-06-27 08:55:00 2189-06-27 08:55:00
 3   10001217 2157-11-20 19:19:00 2157-11-20 19:19:00 2157-11-20 19:19:00
 4   10001725 2110-04-11 15:54:00 2110-04-11 16:00:00 2110-04-11 16:00:00
 5   10001884 2131-01-11 04:22:00 2131-01-11 04:25:00 2131-01-11 04:25:00
 6   10002013 2160-05-18 14:07:00 2160-05-19 07:53:00 2160-05-19 07:53:00
 7   10002155 2129-08-04 13:45:00 2129-08-04 16:49:00 2129-08-04 16:49:00
 8   10002223 2158-01-15 08:15:00 2158-01-15 08:18:00 2158-01-15 08:18:00
 9   10002348 2112-11-30 23:43:00 2112-12-01 00:10:00 2112-12-01 00:10:00
10   10002428 2156-04-12 17:26:00 2156-04-12 17:27:00 2156-04-12 17:27:00
   charttime_220210    charttime_223761    valuenum_220045 valuenum_220179
   <dttm>              <dttm>                        <dbl>           <dbl>
 1 2180-07-23 14:12:00 2180-07-23 17:00:00              91              84
 2 2189-06-27 08:54:00 2189-06-27 09:07:00              77             150
 3 2157-11-20 19:19:00 2157-11-20 19:31:00              86             151
 4 2110-04-11 16:00:00 2110-04-11 20:32:00              55              73
 5 2131-01-11 05:00:00 2131-01-12 20:00:00              38             180
 6 2160-05-18 14:07:00 2160-05-19 08:00:00              80             104
 7 2129-08-04 13:45:00 2129-08-04 14:00:00              68             126
 8 2158-01-15 08:15:00 2158-01-15 12:00:00             100             123
 9 2112-11-30 23:43:00 2112-11-30 23:31:00              72             129
10 2156-04-12 17:26:00 2156-04-12 17:25:00             124              87
   valuenum_220181 valuenum_220210 valuenum_223761
             <dbl>           <dbl>           <dbl>
 1              56              24            98.7
 2              92              23            98  
 3             104              18            98.5
 4              59              19            97.7
 5              46              10            98.1
 6              77              14            97.2
 7              78              18            95.9
 8              80              29            98.6
 9              85              14            97.9
10              53              25           103. 
# … with 53,126 more rows
…
